[
  {
    "companyId": "72",
    "description": "Timelister (TS13)",
    "status": "N",
    "transactionSeries": "TT",
    "transactionType": "TT",
    "treatmentCode": "",
    "updatedAt": "2020-02-21T11:25:50.250",
    "updatedBy": "1100VSE"
  }
]
