[
  {
    "age": 120,
    "birthDate": "1900-01-01T00:00:00.000",
    "companyId": "72",
    "dateFrom": "2019-01-01T00:00:00.000",
    "dateTo": "2099-12-31T00:00:00.000",
    "languageCode": "",
    "personId": "99999",
    "personName": "Dummy, Dummy",
    "personnelType": "A",
    "status": "N",
    "workflowState": "",
    "nameInformation": {
      "aliasName": "DUMMY",
      "customNameField1": "",
      "customNameField2": "",
      "customNameField3": "",
      "customNameField4": "",
      "customNamePart": "",
      "firstName": "Dummy",
      "surname": "Dummy",
      "title": ""
    },
    "paymentInformation": {
      "contractId": "",
      "supplierId": ""
    },
    "additionalInformation": {
      "hasOvertime": false,
      "isHourlyPaid": false,
      "piecework": false
    },
    "lastUpdated": {
      "updatedAt": "2020-06-02T10:57:37.397",
      "updatedBy": "1100VSE"
    },
    "contactPoints": [
      {
        "contactPointType": "1",
        "address": {
          "countryCode": "NO",
          "place": "OSLO",
          "postcode": "0001",
          "province": "",
          "streetAddress": ""
        },
        "phoneNumbers": {
          "telephone1": "",
          "telephone2": "",
          "telephone3": "",
          "telephone4": "",
          "telephone5": "",
          "telephone6": "",
          "telephone7": ""
        },
        "additionalContactInfo": {
          "contactPerson": "",
          "contactPosition": "",
          "eMail": "",
          "eMailCc": "",
          "gtin": "",
          "url": ""
        },
        "lastUpdated": {
          "updatedAt": "2019-11-18T15:16:51.000",
          "updatedBy": "1100VSE"
        }
      }
    ],
    "relatedValues": [
      {
        "dateFrom": "2020-01-01T00:00:00.000",
        "dateTo": "2099-12-31T00:00:00.000",
        "percentage": 0,
        "relatedValue": "11000000",
        "relationGroup": "10",
        "relationId": "C1",
        "relationName": "KOSTSTED",
        "unitValue": 0
      }
    ],
    "customFieldGroups": {}
  },
  {
    "age": 120,
    "birthDate": "1900-01-01T00:00:00.000",
    "companyId": "72",
    "dateFrom": "2019-08-01T00:00:00.000",
    "dateTo": "2099-12-31T00:00:00.000",
    "languageCode": "",
    "personId": "100500",
    "personName": "D, Laila",
    "personnelType": "A",
    "status": "N",
    "workflowState": "",
    "nameInformation": {
      "aliasName": "",
      "customNameField1": "",
      "customNameField2": "",
      "customNameField3": "",
      "customNameField4": "",
      "customNamePart": "",
      "firstName": "Laila",
      "surname": "D",
      "title": ""
    },
    "paymentInformation": {
      "contractId": "",
      "supplierId": ""
    },
    "additionalInformation": {
      "hasOvertime": false,
      "isHourlyPaid": false,
      "piecework": false
    },
    "lastUpdated": {
      "updatedAt": "2020-03-12T13:45:20.000",
      "updatedBy": "R.ELSC"
    },
    "contactPoints": [
      {
        "contactPointType": "1",
        "address": {
          "countryCode": "NO",
          "place": "OSLO",
          "postcode": "0001",
          "province": "",
          "streetAddress": ""
        },
        "phoneNumbers": {
          "telephone1": "",
          "telephone2": "",
          "telephone3": "",
          "telephone4": "",
          "telephone5": "",
          "telephone6": "",
          "telephone7": ""
        },
        "additionalContactInfo": {
          "contactPerson": "",
          "contactPosition": "",
          "eMail": "A.B@NTNU.NO",
          "eMailCc": "",
          "gtin": "",
          "url": ""
        },
        "lastUpdated": {
          "updatedAt": "2020-02-05T10:51:21.273",
          "updatedBy": "1100VSE"
        }
      }
    ],
    "relatedValues": [
      {
        "dateFrom": "2019-08-01T00:00:00.000",
        "dateTo": "2099-12-31T00:00:00.000",
        "percentage": 0,
        "relatedValue": "50001597",
        "relationGroup": "10",
        "relationId": "ZR05",
        "relationName": "STILLINGSKAT",
        "unitValue": 0
      },
      {
        "dateFrom": "2019-08-01T00:00:00.000",
        "dateTo": "2099-12-31T00:00:00.000",
        "percentage": 0,
        "relatedValue": "AD",
        "relationGroup": "",
        "relationId": "B3",
        "relationName": "KOST.KAT",
        "unitValue": 0
      },
      {
        "dateFrom": "2019-08-01T00:00:00.000",
        "dateTo": "2099-12-31T00:00:00.000",
        "percentage": 0,
        "relatedValue": "AD",
        "relationGroup": "",
        "relationId": "B2",
        "relationName": "INNT.KAT",
        "unitValue": 0
      },
      {
        "dateFrom": "2019-08-01T00:00:00.000",
        "dateTo": "2099-12-31T00:00:00.000",
        "percentage": 0,
        "relatedValue": "13000000",
        "relationGroup": "10",
        "relationId": "C1",
        "relationName": "KOSTSTED",
        "unitValue": 0
      },
      {
        "dateFrom": "2019-08-01T00:00:00.000",
        "dateTo": "2099-12-31T00:00:00.000",
        "percentage": 0,
        "relatedValue": "1364",
        "relationGroup": "10",
        "relationId": "ZZ04",
        "relationName": "STILLINGSKODE",
        "unitValue": 0
      }
    ],
    "customFieldGroups": {}
  },
  {
    "age": 120,
    "birthDate": "1900-01-01T00:00:00.000",
    "companyId": "72",
    "dateFrom": "2019-08-01T00:00:00.000",
    "dateTo": "2099-12-31T00:00:00.000",
    "languageCode": "",
    "personId": "100501",
    "personName": "S, Merete",
    "personnelType": "A",
    "status": "N",
    "workflowState": "",
    "nameInformation": {
      "aliasName": "",
      "customNameField1": "",
      "customNameField2": "",
      "customNameField3": "",
      "customNameField4": "",
      "customNamePart": "",
      "firstName": "Merete",
      "surname": "S",
      "title": ""
    },
    "paymentInformation": {
      "contractId": "",
      "supplierId": ""
    },
    "additionalInformation": {
      "hasOvertime": false,
      "isHourlyPaid": false,
      "piecework": false
    },
    "lastUpdated": {
      "updatedAt": "2020-03-12T13:45:41.000",
      "updatedBy": "R.ELSC"
    },
    "contactPoints": [
      {
        "contactPointType": "1",
        "address": {
          "countryCode": "NO",
          "place": "OSLO",
          "postcode": "0001",
          "province": "",
          "streetAddress": ""
        },
        "phoneNumbers": {
          "telephone1": "",
          "telephone2": "",
          "telephone3": "",
          "telephone4": "",
          "telephone5": "",
          "telephone6": "",
          "telephone7": ""
        },
        "additionalContactInfo": {
          "contactPerson": "",
          "contactPosition": "",
          "eMail": "A.B@NTNU.NO",
          "eMailCc": "",
          "gtin": "",
          "url": ""
        },
        "lastUpdated": {
          "updatedAt": "2020-02-05T10:51:21.290",
          "updatedBy": "1100VSE"
        }
      }
    ],
    "relatedValues": [
      {
        "dateFrom": "2019-08-01T00:00:00.000",
        "dateTo": "2099-12-31T00:00:00.000",
        "percentage": 0,
        "relatedValue": "50001597",
        "relationGroup": "10",
        "relationId": "ZR05",
        "relationName": "STILLINGSKAT",
        "unitValue": 0
      },
      {
        "dateFrom": "2019-08-01T00:00:00.000",
        "dateTo": "2099-12-31T00:00:00.000",
        "percentage": 0,
        "relatedValue": "AD",
        "relationGroup": "",
        "relationId": "B3",
        "relationName": "KOST.KAT",
        "unitValue": 0
      },
      {
        "dateFrom": "2019-08-01T00:00:00.000",
        "dateTo": "2099-12-31T00:00:00.000",
        "percentage": 0,
        "relatedValue": "AD",
        "relationGroup": "",
        "relationId": "B2",
        "relationName": "INNT.KAT",
        "unitValue": 0
      },
      {
        "dateFrom": "2019-08-01T00:00:00.000",
        "dateTo": "2099-12-31T00:00:00.000",
        "percentage": 0,
        "relatedValue": "13000000",
        "relationGroup": "10",
        "relationId": "C1",
        "relationName": "KOSTSTED",
        "unitValue": 0
      },
      {
        "dateFrom": "2019-08-01T00:00:00.000",
        "dateTo": "2099-12-31T00:00:00.000",
        "percentage": 0,
        "relatedValue": "1434",
        "relationGroup": "10",
        "relationId": "ZZ04",
        "relationName": "STILLINGSKODE",
        "unitValue": 0
      }
    ],
    "customFieldGroups": {}
  }
]